{
    "Point Anomaly": ["Point Anomaly"]
    ,"Change Anomaly" :["Change Anomaly"]
    ,"Change Trend" :["Change Trend", "Change Anomaly"]
    ,"Change Distribution" :["Change Distribution"]
    ,"Run Anomaly" :["Run Anomaly", "Change Anomaly"]
    ,"Trend Anomaly": ["Trend Anomaly", "Change Anomaly"]
}



