{
  "anomaly_experiment_id": "string",
  "anomaly_run_id": "string",
  "causal_experiment_id": "string",
  "causal_file": "/home/aswin/Documents/causal_file.csv",
  "causal_run_id": "string",
  "cid": null,
  "data_file": "/home/aswin/Documents/final_file1.txt",
  "data_source_id": "string",
  "datesToTraverse": ["2016-09-04","2016-09-11","2016-09-18","2016-09-25","2016-10-02","2016-10-09","2016-10-16","2016-10-23","2016-10-30","2016-11-06","2016-11-13","2016-11-20","2016-11-27","2016-12-04","2016-12-11","2016-12-18","2016-12-25","2017-01-01","2017-01-08","2017-01-15","2017-01-22","2017-01-29","2017-02-05","2017-02-12","2017-02-19","2017-02-26","2017-03-05","2017-03-12","2017-03-19","2017-03-26","2017-04-02","2017-04-09","2017-04-16","2017-04-23","2017-04-30","2017-05-07","2017-05-14","2017-05-21","2017-05-28","2017-06-04","2017-06-11","2017-06-18","2017-06-25","2017-07-02","2017-07-09","2017-07-16","2017-07-23","2017-07-30","2017-08-06","2017-08-13","2017-08-20","2017-08-27","2017-09-03","2017-09-10","2017-09-17","2017-09-24","2017-10-01","2017-10-08","2017-10-15","2017-10-22","2017-10-29","2017-11-05","2017-11-12","2017-11-19","2017-11-26","2017-12-03","2017-12-10","2017-12-17","2017-12-24","2017-12-31","2018-01-07","2018-01-14","2018-01-21","2018-01-28","2018-02-04","2018-02-11","2018-02-18","2018-02-25","2018-03-04","2018-03-11","2018-03-18","2018-03-25","2018-04-01","2018-04-08","2018-04-15","2018-04-22","2018-04-29","2018-05-06","2018-05-13","2018-05-20","2018-05-27","2018-06-03","2018-06-10","2018-06-17","2018-06-24","2018-07-01","2018-07-08","2018-07-15","2018-07-22","2018-07-29","2018-08-05","2018-08-12","2018-08-19","2018-08-26"],
  "db_file": "/home/aswin/Documents/graph_api.properties",
  "db_property_file": "/home/aswin/Documents/graph_api.properties",
  "filteringVariableThreshold": 0,
  "impact_max_depth": 2,
  "impact_results_write_folder": "/home/aswin/Desktop/testing/impact",
  "levelsToTraverse": ["overall", "category", "retailertype", "category-**-retailertype"
  ],
  "requiredAnomalyAlgoFamilies": ["Point Anomaly", "Change Anomaly", "Trend Anomaly", "Run Anomaly", "Change Distribution", "Change Trend"
  ],
  "range_for_anomaly": 0,
  "root_cause_max_depth": 2,
  "root_cause_results_write_folder": "/home/aswin/Desktop/testing/rca",
  "time_column": "time"
}
